<svg width="15" height="20" viewBox="0 0 15 20" fill="none" xmlns="http://www.w3.org/2000/svg">
<path d="M1.01071 2.22283H1.01073L1.0107 2.21786C1.00999 2.0533 1.04066 1.891 1.10014 1.74057C1.15961 1.5902 1.24622 1.4558 1.3533 1.3442C1.4603 1.23268 1.5855 1.1462 1.7207 1.08788C1.85575 1.02962 1.9992 1.0001 2.14317 1H12.8571C13.1483 1 13.4352 1.11959 13.6525 1.34501L14.3552 0.667423L13.6525 1.34501C13.8711 1.57166 14 1.88657 14 2.22222V18.4612L7.90614 15.7529L7.5 15.5723L7.09386 15.7529L1.00093 18.4608L1.01071 2.22283ZM15 20V18.9057L14 19.5556L15 20Z" stroke="black" stroke-opacity="0.5" stroke-width="2"/>
</svg>
