<svg width="30" height="30" viewBox="0 0 30 30" fill="none" xmlns="http://www.w3.org/2000/svg">
<path d="M0 23.7468V29.9959H6.24915L24.68 11.5651L18.4308 5.31595L0 23.7468ZM4.86601 26.663H3.33288V25.1299L18.4308 10.032L19.964 11.5651L4.86601 26.663ZM29.5127 4.38274L25.6132 0.483268C25.2799 0.14998 24.8633 0 24.43 0C23.9967 0 23.5801 0.166644 23.2635 0.483268L20.2139 3.53285L26.4631 9.78201L29.5127 6.73242C29.6671 6.57825 29.7897 6.39513 29.8733 6.19353C29.957 5.99194 30 5.77583 30 5.55758C30 5.33933 29.957 5.12322 29.8733 4.92163C29.7897 4.72003 29.6671 4.53691 29.5127 4.38274V4.38274Z" fill="white"/>
</svg>
